{
    "name": "reporting",
    "title": "Machinata Reporting Default Theme",
    "inherits": null,
    "properties": {
        "assets-path": "/static/bundle",
        "icons-bundle": "{assets-path}/svg/machinata-reporting-icons-bundle.svg",

        "text-font": "Arial,Helvetica,SansSerif,sans-serif",
        "symbols-font": "Arial,Helvetica,SansSerif,sans-serif",
        "label-font": "Arial,Helvetica,SansSerif,sans-serif",
        "axis-font": "Arial,Helvetica,SansSerif,sans-serif",
        "headline-font": "Arial,Helvetica,SansSerif,sans-serif",
        "legend-font": "Arial,Helvetica,SansSerif,sans-serif",
        "subtitle-font": "Arial,Helvetica,SansSerif,sans-serif",
        "number-font": "Arial,Helvetica,SansSerif,sans-serif",

        "text-font-print": "Arial",
        "symbols-font-print": "Arial",
        "label-font-print": "Arial",
        "axis-font-print": "Arial",
        "headline-font-print": "Arial",
        "legend-font-print": "Arial",
        "subtitle-font-print": "Arial",
        "number-font-print": "Arial",

        "font-size-to-character-width-ratio": 0.65,
        "font-size-to-character-width-ratio-print": 0.65,

        "catalog-section-name": "Reports",
        "report-section-name": "Report",

        "line-height": 1.2,
        "text-size": 14,
        "label-size": 16,
        "subtitle-size": 26,
        "axis-size": 12,
        "badge-size": 12,
        "note-size": 12,
        "chart-text-size": 12,
        "button-text-size": 16,
        "h1-size": 60,
        "h2-size": 40,
        "h3-size": 30,
        "h4-size": 20,
        "dialog-size": 20,

        "mobile-title-size-factor": 0.6,
        "mobile-subtitle-size-factor": 0.8,
        "mobile-label-size-factor": 0.9,

        "line-height-print": 1.2,
        "text-size-print": 9,
        "label-size-print": 9,
        "subtitle-size-print": 18,
        "axis-size-print": 9,
        "chart-text-size-print": 9,
        "h1-size-print": 38,
        "h2-size-print": 26,
        "h3-size-print": 18,
        "h4-size-print": 12,

        "axis-bottom-show-ticks": true,
        "axis-bottom-tick-size": 6,

        "axis-bottom-show-ticks-print": true,
        "axis-bottom-tick-size-print": 4,

        "icon-size": 20,
        "icon-size-large": 40,
        "icon-size-trend": 18,

        "toolbar-height": 48,
        "toolbar-title-size": 16,
        "toolbar-title-weight": "bold",
        "toolbar-subtitle-size": 14,
        "toolbar-subtitle-weight": "normal",
        "toolbar-icon-size": 20,
        "toolbar-tab-font-weight": "bold",

        "toolbar-small-height": 24,
        "toolbar-small-icon-size": 12,

        "table-border-color": "#dadada",
        "table-filter-height-multiplier": 1,

        "legend-size": 12,
        "legend-padding": 0,
        "legend-symbol-size": 12,
        "legend-symbol-stroke": 2,
        "legend-column-padding": 12,
        "legend-row-padding": 0,
        "legend-offset": 12,

        "legend-size-print": 7,
        "legend-padding-print": 0,
        "legend-symbol-size-print": 9,
        "legend-symbol-stroke-print": 1,
        "legend-column-padding-print": 12,
        "legend-row-padding-print": 0,
        "legend-offset-print": 7,


        "grid-color": "#7c7c7b",
        "solid-color": "#f1f2f2",
        "dark-color": "black",
        "page-color": "white",
        "text-color": "black",
        "title-color": "black",
        "highlight-color": "white",
        "domain-line-color": "black",

        "grid-color-print": "#DADADA",
        "solid-color-print": "#f1f2f2",
        "dark-color-print": "black",
        "page-color-print": "white",
        "title-color-print": "black",
        "highlight-color-print": "black",
        "domain-line-color-print": "black",

        "button-primary-normal-bg-color": "black",
        "button-primary-normal-border-color": "black",
        "button-primary-normal-text-color": "white",
        "button-primary-selected-bg-color": "black",
        "button-primary-selected-border-color": "black",
        "button-primary-selected-text-color": "white",
        "button-primary-hover-bg-color": "black",
        "button-primary-hover-border-color": "black",
        "button-primary-hover-text-color": "white",

        "button-secondary-normal-bg-color": "transparent",
        "button-secondary-normal-border-color": "black",
        "button-secondary-normal-text-color": "#7c7c7b",
        "button-secondary-selected-bg-color": "transparent",
        "button-secondary-selected-border-color": "black",
        "button-secondary-selected-text-color": "#7c7c7b",
        "button-secondary-hover-bg-color": "transparent",
        "button-secondary-hover-border-color": "black",
        "button-secondary-hover-text-color": "black",

        "menubar-border-size": 1,

        "button-border-radius": 0,
        "dialog-border-radius": 0,

        "headline-weight": "bold",
        "headline-text-color": "black",

        "metrics-value-weight": "bold",
        "metrics-value-color": "black",

        "tooltip-bg-color": "black",
        "tooltip-border-color": "black",
        "tooltip-text-color": "white",

        "progress-bg-color": "white",
        "progress-bar-color": "black",

        "white-color": "#FFFFFF",
        "black-color": "#000000",
        "red-color": "#d91e19",
        "green-color": "#008000",
        "amber-color": "#ffb81c",

        "chrome-solid-bg-color": "#f1f2f2",
        "chrome-solid-text-color": "black",
        "chrome-solid-toolbar-bg-color": "#f1f2f2",
        "chrome-solid-toolbar-title-color": "black",
        "chrome-solid-toolbar-text-color": "black",
        "chrome-solid-toolbar-tool-normal-icon-color": "#000000",
        "chrome-solid-toolbar-tool-normal-bg-color": "transparent",
        "chrome-solid-toolbar-tool-hover-icon-color": "#000000",
        "chrome-solid-toolbar-tool-hover-bg-color": "#dadada",
        "chrome-solid-toolbar-tool-selected-icon-color": "#000000",
        "chrome-solid-toolbar-tool-selected-bg-color": "#dadada",

        "chrome-dark-bg-color": "#000000",
        "chrome-dark-text-color": "#FFFFFF",
        "chrome-dark-toolbar-bg-color": "#f1f2f2",
        "chrome-dark-toolbar-title-color": "black",
        "chrome-dark-toolbar-text-color": "black",
        "chrome-dark-toolbar-tool-normal-icon-color": "#000000",
        "chrome-dark-toolbar-tool-normal-bg-color": "transparent",
        "chrome-dark-toolbar-tool-hover-icon-color": "#000000",
        "chrome-dark-toolbar-tool-hover-bg-color": "#dadada",
        "chrome-dark-toolbar-tool-selected-icon-color": "#000000",
        "chrome-dark-toolbar-tool-selected-bg-color": "#dadada",

        "chrome-light-bg-color": "unset",
        "chrome-light-text-color": "unset",
        "chrome-light-toolbar-bg-color": "unset",
        "chrome-light-toolbar-title-color": "unset",
        "chrome-light-toolbar-text-color": "unset",
        "chrome-light-toolbar-tool-normal-icon-color": "#000000",
        "chrome-light-toolbar-tool-normal-bg-color": "transparent",
        "chrome-light-toolbar-tool-hover-icon-color": "#000000",
        "chrome-light-toolbar-tool-hover-bg-color": "#dadada",
        "chrome-light-toolbar-tool-selected-icon-color": "#000000",
        "chrome-light-toolbar-tool-selected-bg-color": "#dadada",

        "progress-bar-update-interval": "0.1s",

        "padding": 8,
        "padding-half": 4,
        "padding-double": 16,
        "padding-quadruple": 32,
        "padding-quarter": 2,

        "padding-print": 4,

        "line-size": 1,
        "graph-line-size": 4,
        "grid-line-size": 1,
        "graph-symbol-size": 16,
        "domain-line-size": 2,

        "line-size-print": 2,
        "graph-line-size-print": 2,
        "grid-line-size-print": 1,
        "graph-symbol-size-print": 10,
        "domain-line-size-print": 1,

        "vertical-bar-max-size": 22,
        "horizontal-bar-max-size": 22,

        "vertical-bar-max-size-print": 16,
        "horizontal-bar-max-size-print": 10,

        "text-truncation-ellipsis": "...",

        "medium-content-width-size": 1128,

        "symbol-font-next-unicode": "003E",
        "symbol-font-prev-unicode": "F418",
        "symbol-font-chevron-next-unicode": "003E",
        "symbol-font-chevron-prev-unicode": "F418",
        "symbol-font-chevron-up-unicode": "02C4",
        "symbol-font-chevron-down-unicode": "02C5",
        "symbol-font-sort-up-unicode": "02C4",
        "symbol-font-sort-down-unicode": "02C5",

        "standard-transition-duration": "0.25s",

        "z-index-header": "100",
        "z-index-navigation": "200",
        "z-index-fullscreen": "300",
        "z-index-dialog": "2000",
        "z-index-overlay": "1900",

        "reporting-layout-page-padding": 60,
        "reporting-layout-page-padding-mobile": 8,

        "reporting-layout-min-width": 300,
        "reporting-layout-max-width": 1248,
        "reporting-layout-min-width-webprint": 980,
        "reporting-layout-max-width-webprint": 980,

        "reporting-layout-header-height": 48,

        "node-size-min-width-uncompressed": 548,
        "node-vertical-spacing": 64,

        "theme-default-bg": "#283264,#153d88,#008cf0,#73b9ff,#d2d2d7,#b4b4b9,#78787d,#4b4b50",
        "theme-default-fg": "white,white,white,black,black,black,black,black",
        "theme-default-shades": "dark,mid,bright,light,gray3,gray4,gray5,gray6",

        "theme-red-bg": "#a00000,#be0a14,#f02832,#ff878c,#d2d2d7,#b4b4b9,#78787d,#4b4b50",
        "theme-red-fg": "white,white,white,black,black,black,black,black",
        "theme-red-shades": "dark,mid,bright,light,gray3,gray4,gray5,gray6",

        "theme-green-bg": "#005014,#007832,#45ac44,#82dc6e,#d2d2d7,#b4b4b9,#78787d,#4b4b50",
        "theme-green-fg": "white,white,white,black,black,black,black,black",
        "theme-green-shades": "dark,mid,bright,light,gray3,gray4,gray5,gray6",

        "theme-brown-bg": "#21201C,#2C2B26,#37352F,#494742,#d2d2d7,#b4b4b9,#78787d,#4b4b50",
        "theme-brown-fg": "white,white,white,white,black,black,black,black",
        "theme-brown-shades": "dark,mid,bright,light,gray3,gray4,gray5,gray6",

        "theme-rating-bg": "#a00000,#be0a14,#f02832,#ff878c,#d2d2d7,#82dc6e,#45ac44,#007832,#005014,#d2d2d7,#b4b4b9,#78787d,#4b4b50",
        "theme-rating-fg": "white,white,white,black,black,white,white,white,white,black,black,black,black",
        "theme-rating-shades": "negative4,negative3,negative2,negative1,neutral,positive1,positive2,positive3,positive4,gray3,gray4,gray5,gray6",

        "theme-stoplight-bg": "#45ac44,#F9D64E,#f02832",
        "theme-stoplight-fg": "white,black,white",
        "theme-stoplight-shades": "green,yellow,red",

        "theme-gray-bg": "#4b4b50,#78787d,#b4b4b9,#d2d2d7,#e6e7e8,#f1f2f2",
        "theme-gray-fg": "black,black,black,black,black,black",
        "theme-gray-shades": "gray6,gray5,gray4,gray3,gray2,gray1",

        "theme-infographic-bg": "#78787d,#b4b4b9,#d2d2d7,#e6e7e8",
        "theme-infographic-fg": "black,black,black,black",
        "theme-infographic-shades": "gray5,gray4,gray3,gray2",

        "miniportal-header-height": 48,
        "miniportal-header-bg-color": "black",
        "miniportal-header-text-color": "white",
        "miniportal-header-text-font-size": 18,
        "miniportal-header-text-font-weight": "normal",
        "miniportal-header-title-color": "white",
        "miniportal-header-title-font-weight": "bold",
        "miniportal-header-title-font-size": 20,
        "miniportal-tool-normal-bg-color": "black",
        "miniportal-tool-normal-border-color": "black",
        "miniportal-tool-normal-text-color": "white",
        "miniportal-tool-hover-bg-color": "white",
        "miniportal-tool-hover-border-color": "black",
        "miniportal-tool-hover-text-color": "black"
    }
}